{
  "meta": {
    "params": {
      "page_size": 500,
      "page": 2
    },
    "links": {
      "previous": "http://localhost:4000/api/v2/data-sets/chicago-beach-lab-data-dna-tests?page_size=500&page=1",
      "next": null,
      "current": "http://localhost:4000/api/v2/data-sets/chicago-beach-lab-data-dna-tests?page_size=500&page=2"
    },
    "counts": {
      "total_records": 4381,
      "total_pages": 9,
      "errors": 0,
      "data": 500
    }
  },
  "data": [
    {
      "vpf_tNaE6k34OqpOqiUk": {
        "srid": 4326,
        "coordinates": [
          -87.6515,
          41.9785
        ]
      },
      "row_id": 501,
      "Longitude": -87.6515,
      "Location": "(41.9785, -87.6515)",
      "Latitude": 41.9785,
      "DNA Test ID": 5831,
      "DNA Sample Timestamp": "2017-09-01T00:00:00.000000",
      "DNA Sample 2 Reading": 710,
      "DNA Sample 1 Reading": 280,
      "DNA Reading Mean": 445.9,
      "Culture Test ID": null,
      "Culture Sample Interval": null,
      "Culture Sample 2 Timestamp": null,
      "Culture Sample 2 Reading": null,
      "Culture Sample 1 Timestamp": null,
      "Culture Sample 1 Reading": null,
      "Culture Reading Mean": null,
      "Culture Note": null,
      "Beach": "Foster"
    },
    {
      "vpf_tNaE6k34OqpOqiUk": {
        "srid": 4326,
        "coordinates": [
          -87.6385,
          41.9655
        ]
      },
      "row_id": 502,
      "Longitude": -87.6385,
      "Location": "(41.9655, -87.6385)",
      "Latitude": 41.9655,
      "DNA Test ID": 143,
      "DNA Sample Timestamp": "2015-08-06T00:00:00.000000",
      "DNA Sample 2 Reading": 253.9,
      "DNA Sample 1 Reading": 138.4,
      "DNA Reading Mean": 187,
      "Culture Test ID": "94464",
      "Culture Sample Interval": null,
      "Culture Sample 2 Timestamp": null,
      "Culture Sample 2 Reading": "142.0",
      "Culture Sample 1 Timestamp": "08/06/2015 12:00:00 AM",
      "Culture Sample 1 Reading": "222.0",
      "Culture Reading Mean": "177.5",
      "Culture Note": null,
      "Beach": "Montrose"
    },
    {
      "vpf_tNaE6k34OqpOqiUk": {
        "srid": 4326,
        "coordinates": [
          -87.6515,
          41.9785
        ]
      },
      "row_id": 503,
      "Longitude": -87.6515,
      "Location": "(41.9785, -87.6515)",
      "Latitude": 41.9785,
      "DNA Test ID": 5368,
      "DNA Sample Timestamp": "2017-08-22T00:00:00.000000",
      "DNA Sample 2 Reading": 162,
      "DNA Sample 1 Reading": 369,
      "DNA Reading Mean": 244.5,
      "Culture Test ID": null,
      "Culture Sample Interval": null,
      "Culture Sample 2 Timestamp": null,
      "Culture Sample 2 Reading": null,
      "Culture Sample 1 Timestamp": null,
      "Culture Sample 1 Reading": null,
      "Culture Reading Mean": null,
      "Culture Note": null,
      "Beach": "Foster"
    },
    {
      "vpf_tNaE6k34OqpOqiUk": {
        "srid": 4326,
        "coordinates": [
          -87.551,
          41.758
        ]
      }
    }
  ]
}